<svg xmlns="http://www.w3.org/2000/svg" width="669.297" height="521.945" viewBox="0 0 669.297 521.945">
  <g id="Group_9552" data-name="Group 9552" transform="translate(2206.5 787)">
    <g id="Group_9551" data-name="Group 9551" transform="translate(-2079.662 -1164.411)">
      <path id="Path_3080" data-name="Path 3080" d="M355.313,908.645A709.1,709.1,0,0,1,527.6,931.41l-17.223-44.7,166.6-138.9L630.625,731.8l36.051-113.328L554.957,637.616l-8.52-55.764-103.2,100.458,29.3-193.164L407.18,527.583,348.742,409.465,290.311,527.583l-65.185-38.436,29.128,193.164L151.237,581.852l-8.71,55.764L30.808,618.475,66.866,731.8l-46.358,16.01,166.78,138.9-17.23,44.7a707.873,707.873,0,0,1,178.333-22.765Z" transform="translate(-134.524 -32.054)" fill="#222b45" fill-rule="evenodd" opacity="0.03"/>
      <g id="Page-1" transform="translate(-47.526 630.726)" opacity="0.37" style="isolation: isolate">
        <g id="V1_Ideas-Page" transform="translate(0 0)" style="isolation: isolate">
          <g id="Collection-of-Coding-Cards" transform="translate(0 0)" style="isolation: isolate">
            <g id="coding-cards-illustration" transform="translate(0)">
              <g id="card" transform="matrix(0.966, 0.259, -0.259, 0.966, 384.985, 48.03)">
                <g id="Rectangle-11">
                  <rect id="Rectangle_31" data-name="Rectangle 31" width="118.459" height="155.478" rx="8"/>
                  <rect id="Rectangle_32" data-name="Rectangle 32" width="115.723" height="152.742" rx="8" transform="translate(1.368 1.368)" fill="#aba5a5"/>
                </g>
                <ellipse id="Oval" cx="3.679" cy="3.667" rx="3.679" ry="3.667" transform="translate(55.919 140.077)" fill="rgba(0,0,0,0.1)"/>
                <path id="Rectangle-12" d="M0,5.476A5.474,5.474,0,0,1,5.462,0H86.245a5.472,5.472,0,0,1,5.462,5.476V20.535H0Z" transform="translate(13.744 16.868)" fill="rgba(0,0,0,0.1)" fill-rule="evenodd"/>
                <path id="Rectangle-12-Copy" d="M0,0H91.707V92.07a5.471,5.471,0,0,1-5.462,5.471H5.462A5.473,5.473,0,0,1,0,92.07Z" transform="translate(13.744 37.403)" fill="rgba(255,255,255,0.5)" fill-rule="evenodd"/>
                <rect id="Rectangle-13" width="23.545" height="2.934" rx="1.072" transform="translate(13.98 142.277)" fill="#fff" opacity="0.25"/>
                <path id="Rectangle-13-Copy" d="M0,2.934A2.926,2.926,0,0,1,2.93,0H26.5a2.924,2.924,0,0,1,2.929,2.934h0A2.926,2.926,0,0,1,26.5,5.867H2.93A2.924,2.924,0,0,1,0,2.934Z" transform="translate(44.882 24.202)" fill="#fff" fill-rule="evenodd" opacity="0.25"/>
              </g>
              <g id="card-2" data-name="card" transform="matrix(0.966, -0.259, 0.259, 0.966, 0, 78.689)">
                <g id="Rectangle-11-2" data-name="Rectangle-11">
                  <rect id="Rectangle_33" data-name="Rectangle 33" width="118.459" height="155.478" rx="8"/>
                  <rect id="Rectangle_34" data-name="Rectangle 34" width="115.723" height="152.742" rx="8" transform="translate(1.368 1.368)" fill="#5d5d5d"/>
                </g>
                <ellipse id="Oval-2" data-name="Oval" cx="3.679" cy="3.667" rx="3.679" ry="3.667" transform="translate(55.919 140.077)" fill="rgba(0,0,0,0.1)"/>
                <path id="Rectangle-12-2" data-name="Rectangle-12" d="M0,5.476A5.474,5.474,0,0,1,5.462,0H86.245a5.472,5.472,0,0,1,5.462,5.476V20.535H0Z" transform="translate(13.744 16.868)" fill="rgba(0,0,0,0.1)" fill-rule="evenodd"/>
                <path id="Rectangle-12-Copy-2" data-name="Rectangle-12-Copy" d="M0,0H91.707V92.07a5.471,5.471,0,0,1-5.462,5.471H5.462A5.473,5.473,0,0,1,0,92.07Z" transform="translate(13.744 37.403)" fill="rgba(255,255,255,0.5)" fill-rule="evenodd"/>
                <rect id="Rectangle-13-2" data-name="Rectangle-13" width="23.545" height="2.934" rx="1.072" transform="translate(13.98 142.277)" fill="#fff" opacity="0.25"/>
                <path id="Rectangle-13-Copy-2" data-name="Rectangle-13-Copy" d="M0,2.934A2.926,2.926,0,0,1,2.93,0H26.5a2.924,2.924,0,0,1,2.929,2.934h0A2.926,2.926,0,0,1,26.5,5.867H2.93A2.924,2.924,0,0,1,0,2.934Z" transform="translate(44.882 24.202)" fill="#fff" fill-rule="evenodd" opacity="0.25"/>
              </g>
              <g id="card-3" data-name="card" transform="translate(318.587 26.669) rotate(10)">
                <g id="Rectangle-11-3" data-name="Rectangle-11" transform="translate(0 0)">
                  <rect id="Rectangle_35" data-name="Rectangle 35" width="134.748" height="177.689" rx="8"/>
                  <path id="Path_10889" data-name="Path 10889" d="M8,0H124.011a8,8,0,0,1,8,8V166.952a8,8,0,0,1-8,8H8a8,8,0,0,1-8-8V8A8,8,0,0,1,8,0Z" transform="translate(1.368 1.368)" fill="#858585"/>
                </g>
                <ellipse id="Oval-3" data-name="Oval" cx="4.185" cy="4.191" rx="4.185" ry="4.191" transform="translate(63.607 160.088)" fill="rgba(0,0,0,0.1)"/>
                <path id="Rectangle-12-3" data-name="Rectangle-12" d="M0,5.473A5.47,5.47,0,0,1,5.462,0H98.855a5.464,5.464,0,0,1,5.462,5.473v18H0Z" transform="translate(15.634 19.278)" fill="rgba(0,0,0,0.1)" fill-rule="evenodd"/>
                <path id="Rectangle-12-Copy-3" data-name="Rectangle-12-Copy" d="M0,0H104.317V106a5.469,5.469,0,0,1-5.462,5.471H5.462A5.472,5.472,0,0,1,0,106Z" transform="translate(15.634 42.746)" fill="rgba(255,255,255,0.5)" fill-rule="evenodd"/>
                <path id="Rectangle-13-3" data-name="Rectangle-13" d="M0,1.676A1.671,1.671,0,0,1,1.675,0H25.107a1.671,1.671,0,0,1,1.675,1.676h0a1.671,1.671,0,0,1-1.675,1.676H1.675A1.672,1.672,0,0,1,0,1.676Z" transform="translate(15.902 162.603)" fill="#fff" fill-rule="evenodd" opacity="0.25"/>
                <path id="Rectangle-13-Copy-3" data-name="Rectangle-13-Copy" d="M0,3.353A3.357,3.357,0,0,1,3.363,0H30.115a3.35,3.35,0,0,1,3.363,3.353h0a3.357,3.357,0,0,1-3.363,3.353H3.363A3.35,3.35,0,0,1,0,3.353Z" transform="translate(51.053 27.659)" fill="#fff" fill-rule="evenodd" opacity="0.25"/>
              </g>
              <g id="card-4" data-name="card" transform="translate(48.12 50.068) rotate(-10)">
                <g id="Rectangle-11-4" data-name="Rectangle-11" transform="translate(0 0)">
                  <rect id="Rectangle_37" data-name="Rectangle 37" width="134.748" height="177.689" rx="8"/>
                  <rect id="Rectangle_38" data-name="Rectangle 38" width="132.011" height="174.952" rx="8" transform="translate(1.368 1.368)" fill="#9f9a9a"/>
                </g>
                <ellipse id="Oval-4" data-name="Oval" cx="4.185" cy="4.191" rx="4.185" ry="4.191" transform="translate(63.607 160.088)" fill="rgba(0,0,0,0.1)"/>
                <path id="Rectangle-12-4" data-name="Rectangle-12" d="M0,5.473A5.47,5.47,0,0,1,5.462,0H98.855a5.464,5.464,0,0,1,5.462,5.473v18H0Z" transform="translate(15.634 19.278)" fill="rgba(0,0,0,0.1)" fill-rule="evenodd"/>
                <path id="Rectangle-12-Copy-4" data-name="Rectangle-12-Copy" d="M0,0H104.317V106a5.469,5.469,0,0,1-5.462,5.471H5.462A5.472,5.472,0,0,1,0,106Z" transform="translate(15.634 42.746)" fill="rgba(255,255,255,0.5)" fill-rule="evenodd"/>
                <path id="Rectangle-13-4" data-name="Rectangle-13" d="M0,1.676A1.671,1.671,0,0,1,1.675,0H25.107a1.671,1.671,0,0,1,1.675,1.676h0a1.671,1.671,0,0,1-1.675,1.676H1.675A1.672,1.672,0,0,1,0,1.676Z" transform="translate(15.902 162.603)" fill="#fff" fill-rule="evenodd" opacity="0.25"/>
                <path id="Rectangle-13-Copy-4" data-name="Rectangle-13-Copy" d="M0,3.353A3.357,3.357,0,0,1,3.363,0H30.115a3.35,3.35,0,0,1,3.363,3.353h0a3.357,3.357,0,0,1-3.363,3.353H3.363A3.35,3.35,0,0,1,0,3.353Z" transform="translate(51.053 27.659)" fill="#fff" fill-rule="evenodd" opacity="0.25"/>
              </g>
              <g id="card-5" data-name="card" transform="translate(94.492 23.494) rotate(-5)">
                <g id="Rectangle-11-5" data-name="Rectangle-11" transform="translate(0 0)">
                  <rect id="Rectangle_39" data-name="Rectangle 39" width="152.516" height="199.901" rx="8" transform="translate(0 0)"/>
                  <rect id="Rectangle_40" data-name="Rectangle 40" width="149.78" height="197.165" rx="8" transform="translate(1.368 1.368)" fill="#cfcfcf"/>
                </g>
                <path id="Rectangle-12-5" data-name="Rectangle-12" d="M0,5.471A5.466,5.466,0,0,1,5.478,0H112.6a5.466,5.466,0,0,1,5.478,5.471V26.4H0Z" transform="translate(16.333 21.568)" fill="rgba(0,0,0,0.1)" fill-rule="evenodd"/>
                <path id="Rectangle-12-Copy-5" data-name="Rectangle-12-Copy" d="M0,0H118.073V119.939a5.465,5.465,0,0,1-5.478,5.47H5.478A5.474,5.474,0,0,1,0,119.939Z" transform="translate(16.333 47.97)" fill="rgba(255,255,255,0.5)" fill-rule="evenodd"/>
                <rect id="Rectangle-13-5" data-name="Rectangle-13" width="30.314" height="3.772" rx="1.378" transform="translate(16.636 182.808)" fill="#fff" opacity="0.25"/>
                <path id="Rectangle-13-Copy-5" data-name="Rectangle-13-Copy" d="M0,3.772A3.764,3.764,0,0,1,3.772,0H34.12a3.774,3.774,0,0,1,3.772,3.772h0A3.764,3.764,0,0,1,34.12,7.543H3.772A3.774,3.774,0,0,1,0,3.772Z" transform="translate(56.423 30.997)" fill="#fff" fill-rule="evenodd" opacity="0.25"/>
              </g>
              <g id="card-6" data-name="card" transform="translate(246.578 10.14) rotate(5)">
                <g id="Rectangle-11-6" data-name="Rectangle-11" transform="translate(0 0)">
                  <rect id="Rectangle_41" data-name="Rectangle 41" width="152.513" height="199.901" rx="8" transform="translate(0 0)"/>
                  <rect id="Rectangle_42" data-name="Rectangle 42" width="149.777" height="197.165" rx="8" transform="translate(1.368 1.368)" fill="#807676"/>
                </g>
                <ellipse id="Oval-5" data-name="Oval" cx="4.736" cy="4.715" rx="4.736" ry="4.715" transform="translate(71.994 180.099)" fill="rgba(0,0,0,0.1)"/>
                <path id="Rectangle-12-6" data-name="Rectangle-12" d="M0,5.471A5.466,5.466,0,0,1,5.478,0H112.593a5.466,5.466,0,0,1,5.478,5.471V26.4H0Z" transform="translate(17.695 21.687)" fill="rgba(0,0,0,0.1)" fill-rule="evenodd"/>
                <path id="Rectangle-12-Copy-6" data-name="Rectangle-12-Copy" d="M0,0H118.071V119.939a5.465,5.465,0,0,1-5.478,5.47H5.478A5.474,5.474,0,0,1,0,119.939Z" transform="translate(17.695 48.089)" fill="rgba(255,255,255,0.5)" fill-rule="evenodd"/>
                <rect id="Rectangle-13-6" data-name="Rectangle-13" width="30.313" height="3.772" rx="1.378" transform="translate(17.998 182.927)" fill="#fff" opacity="0.25"/>
                <path id="Rectangle-13-Copy-6" data-name="Rectangle-13-Copy" d="M0,3.772A3.764,3.764,0,0,1,3.772,0H34.12a3.774,3.774,0,0,1,3.772,3.772h0A3.764,3.764,0,0,1,34.12,7.543H3.772A3.774,3.774,0,0,1,0,3.772Z" transform="translate(57.785 31.117)" fill="#fff" fill-rule="evenodd" opacity="0.25"/>
              </g>
              <g id="card-7" data-name="card" transform="translate(165.906)">
                <g id="Rectangle-11-7" data-name="Rectangle-11">
                  <rect id="Rectangle_43" data-name="Rectangle 43" width="168.804" height="222.111" rx="8"/>
                  <rect id="Rectangle_44" data-name="Rectangle 44" width="166.068" height="219.375" rx="8" transform="translate(1.368 1.368)" fill="#929292"/>
                </g>
                <path id="Rectangle-12-7" data-name="Rectangle-12" d="M14.316,23.1a5.468,5.468,0,0,1,5.47-5.483H139.529A5.474,5.474,0,0,1,145,23.1V46.949H14.316Z" transform="translate(5.269 6.483)" fill="rgba(0,0,0,0.1)" fill-rule="evenodd"/>
                <path id="Rectangle-12-Copy-7" data-name="Rectangle-12-Copy" d="M14.316,39.057H145V172.937a5.459,5.459,0,0,1-5.47,5.463H19.785a5.467,5.467,0,0,1-5.47-5.463Z" transform="translate(5.269 14.376)" fill="rgba(255,255,255,0.5)" fill-rule="evenodd"/>
                <path id="Rectangle-13-7" data-name="Rectangle-13" d="M15,151.1a2.093,2.093,0,0,1,2.1-2.1H46.453a2.092,2.092,0,0,1,2.1,2.1h0a2.092,2.092,0,0,1-2.1,2.095H17.1A2.092,2.092,0,0,1,15,151.1Z" transform="translate(5.521 54.844)" fill="#fff" fill-rule="evenodd" opacity="0.25"/>
                <path id="Rectangle-13-Copy-7" data-name="Rectangle-13-Copy" d="M28,29.463a4.19,4.19,0,0,1,4.178-4.191h84.673a4.187,4.187,0,0,1,4.178,4.191h0a4.19,4.19,0,0,1-4.178,4.191H32.178A4.187,4.187,0,0,1,28,29.463Z" transform="translate(10.306 9.302)" fill="#fff" fill-rule="evenodd" opacity="0.25"/>
              </g>
            </g>
          </g>
        </g>
      </g>
      <g id="Group_9547" data-name="Group 9547" transform="translate(216.434 649.369)">
        <g id="Group_1376" data-name="Group 1376" transform="translate(3.228 67.737)">
          <path id="Path_3032" data-name="Path 3032" d="M1304.766,654.615h38.03v27.518h-38.03a13.779,13.779,0,0,1-13.779-13.779v.02A13.762,13.762,0,0,1,1304.766,654.615Z" transform="translate(-1290.987 -654.615)" fill="#f58a4c"/>
          <path id="Path_3033" data-name="Path 3033" d="M1404.963,654.615h-38.305v27.518h38.305a13.779,13.779,0,0,0,13.779-13.779v.02A13.763,13.763,0,0,0,1404.963,654.615Z" transform="translate(-1287.331 -654.615)" fill="#f58a4c"/>
        </g>
        <path id="Path_3034" data-name="Path 3034" d="M1425.5,792.078v10.849H1287.908V792.078a52.951,52.951,0,0,1,26.931-46.061,51.521,51.521,0,0,1,10.248-4.313,53.107,53.107,0,0,1,15.878-2.281h31.753a52.9,52.9,0,0,1,15.844,2.281,50.96,50.96,0,0,1,10.144,4.379A52.721,52.721,0,0,1,1425.5,792.078Z" transform="translate(-1287.908 -582.781)" fill="#73648c"/>
        <path id="Path_3035" data-name="Path 3035" d="M1397.53,746.017a42.332,42.332,0,0,1-83.867,0,51.261,51.261,0,0,1,10.215-4.313,52.878,52.878,0,0,1,15.843-2.281h31.752a52.89,52.89,0,0,1,15.844,2.281A51.206,51.206,0,0,1,1397.53,746.017Z" transform="translate(-1286.664 -582.781)" fill="#fffaf1"/>
        <path id="Path_3036" data-name="Path 3036" d="M1386.847,741.7a31.753,31.753,0,0,1-63.44.033,52.9,52.9,0,0,1,15.843-2.314H1371A52.892,52.892,0,0,1,1386.847,741.7Z" transform="translate(-1286.193 -582.781)" fill="#ffa870"/>
        <path id="Rectangle_230" data-name="Rectangle 230" d="M0,0H42.336a0,0,0,0,1,0,0V21.879A20.192,20.192,0,0,1,22.143,42.071H20.192A20.192,20.192,0,0,1,0,21.879V0A0,0,0,0,1,0,0Z" transform="translate(47.628 136.533)" fill="#f58a4c"/>
        <path id="Rectangle_231" data-name="Rectangle 231" d="M0,0H105.839a0,0,0,0,1,0,0V55.787a50.481,50.481,0,0,1-50.481,50.481H50.481A50.481,50.481,0,0,1,0,55.788V0A0,0,0,0,1,0,0Z" transform="translate(15.876 42.336)" fill="#ffa870"/>
        <path id="Path_3037" data-name="Path 3037" d="M1386.749,680.865a21.472,21.472,0,0,1-1.757,8.544c-2.656,6.229-8.161,11.269-15.23,14.208a39.3,39.3,0,0,1-29.742-.085c-6.974-2.956-12.393-7.954-15.018-14.122a21.47,21.47,0,0,1-1.757-8.544Z" transform="translate(-1286.201 -579.489)" fill="#a12d37"/>
        <path id="Path_3038" data-name="Path 3038" d="M1386.749,680.865a6.1,6.1,0,0,1-1.757,4.092H1325a6.1,6.1,0,0,1-1.757-4.092Z" transform="translate(-1286.201 -579.489)" fill="#fff"/>
        <path id="Path_3039" data-name="Path 3039" d="M1368.989,708.224a32.353,32.353,0,0,1-29.741-.106,15.939,15.939,0,0,1,29.741.106Z" transform="translate(-1285.428 -584.784)" fill="#c93945"/>
        <path id="Rectangle_232" data-name="Rectangle 232" d="M10.1,0h.976a10.1,10.1,0,0,1,10.1,10.1V20.859a0,0,0,0,1,0,0H0a0,0,0,0,1,0,0V10.1A10.1,10.1,0,0,1,10.1,0Z" transform="translate(58.212 65.929)" fill="#f57355"/>
        <ellipse id="Ellipse_359" data-name="Ellipse 359" cx="6.35" cy="6.35" rx="6.35" ry="6.35" transform="translate(35.456 67.527)" fill="#7a2f45"/>
        <ellipse id="Ellipse_360" data-name="Ellipse 360" cx="6.35" cy="6.35" rx="6.35" ry="6.35" transform="translate(89.435 67.527)" fill="#7a2f45"/>
        <path id="Path_3040" data-name="Path 3040" d="M1409.023,611.168h21.168a21.2,21.2,0,0,1-21.168,21.169H1303.184A42.335,42.335,0,0,1,1345.519,590h84.671A21.2,21.2,0,0,1,1409.023,611.168Z" transform="translate(-1287.17 -590)" fill="#ffc03b"/>
      </g>
      <g id="Group_9548" data-name="Group 9548" transform="translate(44.402 634.148)">
        <path id="Path_3065" data-name="Path 3065" d="M288.593,1205.9l22.4,46.038h16.422V1205.9Z" transform="translate(-265.829 -1082.807)" fill="#bf571f"/>
        <path id="Path_3066" data-name="Path 3066" d="M419.3,1205.791l-22.338,46.172H380.4v-46.879Z" transform="translate(-261.394 -1082.847)" fill="#bf571f"/>
        <path id="Path_3067" data-name="Path 3067" d="M422.737,1315.852H289.431v-.124a61.391,61.391,0,0,1,61.4-61.4h10.377a61.519,61.519,0,0,1,61.526,61.527Z" transform="translate(-265.789 -1080.468)" fill="#ffdb56"/>
        <path id="Path_3068" data-name="Path 3068" d="M326.753,1230.967v86.013H302.286l6.245-60,.082-.79.769-7.414.082-.79v-17.022Z" transform="translate(-265.167 -1081.597)" fill="#bf571f"/>
        <path id="Path_3069" data-name="Path 3069" d="M383.048,1259.012v.307a28.708,28.708,0,0,1-28.64,28.712h-.041a28.764,28.764,0,0,1-28.744-28.712v-.339a60.93,60.93,0,0,1,23.462-4.655h10.377A61.209,61.209,0,0,1,383.048,1259.012Z" transform="translate(-264.04 -1080.468)" fill="#ffa870"/>
        <path id="Rectangle_235" data-name="Rectangle 235" d="M0,0H41.017a0,0,0,0,1,0,0V21.2A19.563,19.563,0,0,1,21.454,40.761h-1.89A19.563,19.563,0,0,1,0,21.2V0A0,0,0,0,1,0,0Z" transform="translate(69.788 158.604)" fill="#f59055"/>
        <path id="Path_3070" data-name="Path 3070" d="M404.87,1316.979H380.4v-86.013h17.288v17.022l.082.79.769,7.414.082.79Z" transform="translate(-261.393 -1081.597)" fill="#bf571f"/>
        <ellipse id="Ellipse_361" data-name="Ellipse 361" cx="75.059" cy="75.059" rx="75.059" ry="75.059" transform="translate(0 146.103) rotate(-76.717)" fill="#bf571f"/>
        <path id="Rectangle_236" data-name="Rectangle 236" d="M32.388,0H70.155a32.388,32.388,0,0,1,32.388,32.388V79.27a48.909,48.909,0,0,1-48.909,48.909H48.909A48.909,48.909,0,0,1,0,79.27V32.388A32.388,32.388,0,0,1,32.388,0Z" transform="translate(39.025 41.704)" fill="#ffa870"/>
        <path id="Rectangle_237" data-name="Rectangle 237" d="M9.748,0h.962a9.8,9.8,0,0,1,9.8,9.8V20.209a0,0,0,0,1,0,0H0a0,0,0,0,1,0,0V9.748A9.748,9.748,0,0,1,9.748,0Z" transform="translate(80.042 90.199)" fill="#f57355"/>
        <path id="Path_3071" data-name="Path 3071" d="M385.195,1201.626a20.459,20.459,0,0,1-1.7,8.2c-2.574,5.979-7.906,10.818-14.756,13.64a38.409,38.409,0,0,1-28.815-.082c-6.757-2.838-12.007-7.636-14.551-13.557a20.458,20.458,0,0,1-1.7-8.2Z" transform="translate(-264.135 -1076.857)" fill="#a12d37"/>
        <path id="Path_3072" data-name="Path 3072" d="M385.195,1201.626a6.216,6.216,0,0,1-1.7,4.1H325.37a6.216,6.216,0,0,1-1.7-4.1Z" transform="translate(-264.135 -1076.857)" fill="#fff"/>
        <path id="Path_3073" data-name="Path 3073" d="M367.987,1228.133a31.352,31.352,0,0,1-28.815-.1,15.442,15.442,0,0,1,28.815.1Z" transform="translate(-263.385 -1082.214)" fill="#c93945"/>
        <path id="Path_3074" data-name="Path 3074" d="M407.357,1136.508h0a118.6,118.6,0,0,1-60.218,32.978l-57.708,12.141,14.107-48.2,60.726-15.894Z" transform="translate(-261.182 -1091.107)" fill="#bf571f"/>
        <path id="Path_3075" data-name="Path 3075" d="M334.691,1187.151H317.258a8.717,8.717,0,0,1,17.433,0Z" transform="translate(-264.444 -1084.134)" fill="#7a2f45"/>
        <path id="Path_3076" data-name="Path 3076" d="M389.573,1187.151H372.139a8.717,8.717,0,0,1,17.434,0Z" transform="translate(-261.793 -1084.134)" fill="#7a2f45"/>
        <path id="Path_3077" data-name="Path 3077" d="M326.465,1247.958v8.2H308.243l.082-.789.769-7.414Z" transform="translate(-264.88 -1080.776)" fill="#3bbeff"/>
        <path id="Path_3078" data-name="Path 3078" d="M398.625,1256.161H380.4v-8.2h17.371l.769,7.414Z" transform="translate(-261.393 -1080.776)" fill="#3bbeff"/>
      </g>
      <line id="Line_39" data-name="Line 39" x2="632" transform="translate(-126.838 869.911)" fill="none" stroke="#e5e5e5" stroke-width="3"/>
    </g>
  </g>
</svg>
